Copula Example
…
Apply make_envelope function to combine isolines in contourLines into an envelope curve.

envelope_curves <- contourLines %>%
  group_by(rp) %>%
  group_split() %>%
  map_dfr(make_envelope)

envelope_curves

# A tibble: 970 × 3
      rp marshalltown marengo
   <dbl>        <dbl>   <dbl>
 1    50         45.6  36439.
 2    50         94.0  36439.
 3    50        142.   36439.
 4    50        191.   36439.
 5    50        239.   36439.
 6    50        287.   36439.
 7    50        336.   36439.
 8    50        384.   36439.
 9    50        433.   36439.
10    50        481.   36439.
# ℹ 960 more rows
…
